!table
!version 300
!charset WindowsBalticRim

Definition Table
  File "lt32.tif"
  Type "RASTER"
  (324964.99,6201240.49) (0,0) Label "Pt 1",
  (349969.99,6201240.49) (2125,0) Label "Pt 2",
  (349969.99,6176235.49) (2125,2125) Label "Pt 3",
  (324964.99,6176235.49) (0,2125) Label "Pt 4"
  CoordSys Earth Projection 8, 104, "m", 24, 0, 0.9998, 500000, 0
  Units "m"
