#
# A fatal error has been detected by the Java Runtime Environment:
#
#  SIGSEGV (0xb) at pc=0xb4a6806b, pid=30242, tid=2099633008
#
# JRE version: 6.0_20-b20
# Java VM: OpenJDK Server VM (19.0-b09 mixed mode linux-x86 )
# Derivative: IcedTea6 1.9.13
# Distribution: Ubuntu 10.04.1 LTS, package 6b20-1.9.13-0ubuntu1~10.04.1
# Problematic frame:
# J  com.vividsolutions.jts.index.chain.MonotoneChain.computeOverlaps(Lcom/vividsolutions/jts/index/chain/MonotoneChain;Lcom/vividsolutions/jts/index/chain/MonotoneChainOverlapAction;)V
#
# If you would like to submit a bug report, please include
# instructions how to reproduce the bug and visit:
#   https://bugs.launchpad.net/ubuntu/+source/openjdk-6/
#

---------------  T H R E A D  ---------------

Current thread (0x09e13c00):  JavaThread "AWT-EventQueue-0" [_thread_in_Java, id=30267, stack(0x7d20d000,0x7d25e000)]

siginfo:si_signo=SIGSEGV: si_errno=0, si_code=128 (), si_addr=0x00000000

Registers:
EAX=0x00000017, EBX=0xa6ae2cc8, ECX=0x869ba8e8, EDX=0xa69d8d78
ESP=0x7d25bb80, EBP=0x09e13c00, ESI=0x0000000c, EDI=0x00000008
EIP=0xb4a6806b, CR2=0xb77f9000, EFLAGS=0x00210203

Register to memory mapping:

EAX=0x00000017
0x00000017 is pointing to unknown location

EBX=0xa6ae2cc8

[error occurred during error reporting (printing registers, top of stack, instructions near pc), id 0xe0000000]

Stack: [0x7d20d000,0x7d25e000],  sp=0x7d25bb80,  free space=314k
Native frames: (J=compiled Java code, j=interpreted, Vv=VM code, C=native code)
J  com.vividsolutions.jts.index.chain.MonotoneChain.computeOverlaps(Lcom/vividsolutions/jts/index/chain/MonotoneChain;Lcom/vividsolutions/jts/index/chain/MonotoneChainOverlapAction;)V


---------------  P R O C E S S  ---------------

Java Threads: ( => current thread )
  0x7c2f3c00 JavaThread "pool-10-thread-1" [_thread_blocked, id=30314, stack(0x7cb58000,0x7cba9000)]
  0x7cf7c400 JavaThread "TimerQueue" daemon [_thread_blocked, id=30274, stack(0x7ce5e000,0x7ceaf000)]
  0x0a01d400 JavaThread "pool-3-thread-1" [_thread_in_vm, id=30272, stack(0x7ceaf000,0x7cf00000)]
  0x09e8ac00 JavaThread "Thread-2" daemon [_thread_blocked, id=30271, stack(0x7d030000,0x7d081000)]
  0x09adcc00 JavaThread "DestroyJavaVM" [_thread_blocked, id=30247, stack(0xb7791000,0xb77e2000)]
  0x7cd4f800 JavaThread "WeakCollectionCleaner" daemon [_thread_blocked, id=30270, stack(0x7d081000,0x7d0d2000)]
  0x09ee9800 JavaThread "pool-2-thread-1" [_thread_blocked, id=30269, stack(0x7d16b000,0x7d1bc000)]
=>0x09e13c00 JavaThread "AWT-EventQueue-0" [_thread_in_Java, id=30267, stack(0x7d20d000,0x7d25e000)]
  0x09e35000 JavaThread "AWT-Shutdown" [_thread_blocked, id=30266, stack(0x7d2af000,0x7d300000)]
  0x09da8c00 JavaThread "AWT-XAWT" daemon [_thread_in_native, id=30260, stack(0x7d64c000,0x7d69d000)]
  0x09d43000 JavaThread "Java2D Disposer" daemon [_thread_blocked, id=30259, stack(0x7d795000,0x7d7e6000)]
  0x09b81c00 JavaThread "Low Memory Detector" daemon [_thread_blocked, id=30257, stack(0x7da14000,0x7da65000)]
  0x09b80400 JavaThread "CompilerThread1" daemon [_thread_in_vm, id=30256, stack(0x7da65000,0x7dae6000)]
  0x09b7cc00 JavaThread "CompilerThread0" daemon [_thread_in_native, id=30255, stack(0x7dae6000,0x7db67000)]
  0x09b7b400 JavaThread "Signal Dispatcher" daemon [_thread_blocked, id=30254, stack(0x7db67000,0x7dbb8000)]
  0x09b6b000 JavaThread "Finalizer" daemon [_thread_blocked, id=30253, stack(0x7dbf7000,0x7dc48000)]
  0x09b66800 JavaThread "Reference Handler" daemon [_thread_blocked, id=30252, stack(0x7dc48000,0x7dc99000)]

Other Threads:
  0x09b62800 VMThread [stack: 0x7dc99000,0x7dd1a000] [id=30251]
  0x09b83c00 WatcherThread [stack: 0x7d993000,0x7da14000] [id=30258]

VM state:not at safepoint (normal execution)

VM Mutex/Monitor currently owned by a thread: None

Heap
 PSYoungGen      total 63872K, used 27651K [0xa5030000, 0xacec0000, 0xb46d0000)
  eden space 63744K, 43% used [0xa5030000,0xa6b14eb0,0xa8e70000)
  from space 128K, 87% used [0xacea0000,0xacebc000,0xacec0000)
  to   space 4416K, 0% used [0xac620000,0xac620000,0xaca70000)
 PSOldGen        total 31552K, used 14508K [0x862d0000, 0x881a0000, 0xa5030000)
  object space 31552K, 45% used [0x862d0000,0x870fb280,0x881a0000)
 PSPermGen       total 23040K, used 22947K [0x7e2d0000, 0x7f950000, 0x862d0000)
  object space 23040K, 99% used [0x7e2d0000,0x7f938d40,0x7f950000)

Dynamic libraries:
00110000-00117000 r-xp 00000000 08:04 2960082    /lib/tls/i686/cmov/librt-2.11.1.so
00117000-00118000 r--p 00006000 08:04 2960082    /lib/tls/i686/cmov/librt-2.11.1.so
00118000-00119000 rw-p 00007000 08:04 2960082    /lib/tls/i686/cmov/librt-2.11.1.so
00119000-00125000 r-xp 00000000 08:04 671845     /usr/lib/jvm/java-6-openjdk/jre/lib/i386/libverify.so
00125000-00126000 r--p 0000b000 08:04 671845     /usr/lib/jvm/java-6-openjdk/jre/lib/i386/libverify.so
00126000-00127000 rw-p 0000c000 08:04 671845     /usr/lib/jvm/java-6-openjdk/jre/lib/i386/libverify.so
00127000-0014b000 r-xp 00000000 08:04 671813     /usr/lib/jvm/java-6-openjdk/jre/lib/i386/libjava.so
0014b000-0014c000 r--p 00023000 08:04 671813     /usr/lib/jvm/java-6-openjdk/jre/lib/i386/libjava.so
0014c000-0014e000 rw-p 00024000 08:04 671813     /usr/lib/jvm/java-6-openjdk/jre/lib/i386/libjava.so
0014e000-00155000 r-xp 00000000 08:04 671863     /usr/lib/jvm/java-6-openjdk/jre/lib/i386/native_threads/libhpi.so
00155000-00156000 r--p 00006000 08:04 671863     /usr/lib/jvm/java-6-openjdk/jre/lib/i386/native_threads/libhpi.so
00156000-00157000 rw-p 00007000 08:04 671863     /usr/lib/jvm/java-6-openjdk/jre/lib/i386/native_threads/libhpi.so
00157000-0019c000 r-xp 00000000 08:04 671795     /usr/lib/jvm/java-6-openjdk/jre/lib/i386/xawt/libmawt.so
0019c000-0019d000 r--p 00044000 08:04 671795     /usr/lib/jvm/java-6-openjdk/jre/lib/i386/xawt/libmawt.so
0019d000-0019f000 rw-p 00045000 08:04 671795     /usr/lib/jvm/java-6-openjdk/jre/lib/i386/xawt/libmawt.so
0019f000-001a0000 rw-p 00000000 00:00 0 
001a0000-001ae000 r-xp 00000000 08:04 124484     /usr/lib/libXext.so.6.4.0
001ae000-001af000 r--p 0000d000 08:04 124484     /usr/lib/libXext.so.6.4.0
001af000-001b0000 rw-p 0000e000 08:04 124484     /usr/lib/libXext.so.6.4.0
001b0000-001b8000 r-xp 00000000 08:04 124506     /usr/lib/libXrender.so.1.3.0
001b8000-001b9000 r--p 00007000 08:04 124506     /usr/lib/libXrender.so.1.3.0
001b9000-001ba000 rw-p 00008000 08:04 124506     /usr/lib/libXrender.so.1.3.0
001ba000-001be000 r-xp 00000000 08:04 124512     /usr/lib/libXtst.so.6.1.0
001be000-001bf000 r--p 00003000 08:04 124512     /usr/lib/libXtst.so.6.1.0
001bf000-001c0000 rw-p 00004000 08:04 124512     /usr/lib/libXtst.so.6.1.0
001c0000-001c2000 r-xp 00000000 08:04 124471     /usr/lib/libXau.so.6.0.0
001c2000-001c3000 r--p 00001000 08:04 124471     /usr/lib/libXau.so.6.0.0
001c3000-001c4000 rw-p 00002000 08:04 124471     /usr/lib/libXau.so.6.0.0
001c4000-001c8000 r-xp 00000000 08:04 124482     /usr/lib/libXdmcp.so.6.0.0
001c8000-001c9000 r--p 00003000 08:04 124482     /usr/lib/libXdmcp.so.6.0.0
001c9000-001ca000 rw-p 00004000 08:04 124482     /usr/lib/libXdmcp.so.6.0.0
001ca000-001d2000 r-xp 00000000 08:04 124478     /usr/lib/libXcursor.so.1.0.2
001d2000-001d3000 r--p 00007000 08:04 124478     /usr/lib/libXcursor.so.1.0.2
001d3000-001d4000 rw-p 00008000 08:04 124478     /usr/lib/libXcursor.so.1.0.2
001d4000-001d8000 r-xp 00000000 08:04 124486     /usr/lib/libXfixes.so.3.1.0
001d8000-001d9000 r--p 00003000 08:04 124486     /usr/lib/libXfixes.so.3.1.0
001d9000-001da000 rw-p 00004000 08:04 124486     /usr/lib/libXfixes.so.3.1.0
001dd000-001f2000 r-xp 00000000 08:04 2960073    /lib/tls/i686/cmov/libpthread-2.11.1.so
001f2000-001f3000 r--p 00014000 08:04 2960073    /lib/tls/i686/cmov/libpthread-2.11.1.so
001f3000-001f4000 rw-p 00015000 08:04 2960073    /lib/tls/i686/cmov/libpthread-2.11.1.so
001f4000-001f6000 rw-p 00000000 00:00 0 
001f6000-0027b000 r-xp 00000000 08:04 671778     /usr/lib/jvm/java-6-openjdk/jre/lib/i386/libawt.so
0027b000-0027c000 r--p 00085000 08:04 671778     /usr/lib/jvm/java-6-openjdk/jre/lib/i386/libawt.so
0027c000-00282000 rw-p 00086000 08:04 671778     /usr/lib/jvm/java-6-openjdk/jre/lib/i386/libawt.so
00282000-002a7000 rw-p 00000000 00:00 0 
002a7000-002eb000 r-xp 00000000 08:04 671804     /usr/lib/jvm/java-6-openjdk/jre/lib/i386/libfontmanager.so
002eb000-002ed000 r--p 00043000 08:04 671804     /usr/lib/jvm/java-6-openjdk/jre/lib/i386/libfontmanager.so
002ed000-002ee000 rw-p 00045000 08:04 671804     /usr/lib/jvm/java-6-openjdk/jre/lib/i386/libfontmanager.so
002ee000-002f3000 rw-p 00000000 00:00 0 
002f3000-00310000 r-xp 00000000 08:04 2932852    /lib/libgcc_s.so.1
00310000-00311000 r--p 0001c000 08:04 2932852    /lib/libgcc_s.so.1
00311000-00312000 rw-p 0001d000 08:04 2932852    /lib/libgcc_s.so.1
00312000-00319000 r-xp 00000000 08:04 671840     /usr/lib/jvm/java-6-openjdk/jre/lib/i386/libnio.so
00319000-0031a000 r--p 00006000 08:04 671840     /usr/lib/jvm/java-6-openjdk/jre/lib/i386/libnio.so
0031a000-0031b000 rw-p 00007000 08:04 671840     /usr/lib/jvm/java-6-openjdk/jre/lib/i386/libnio.so
00326000-00339000 r-xp 00000000 08:04 2932934    /lib/libz.so.1.2.3.3
00339000-0033a000 r--p 00012000 08:04 2932934    /lib/libz.so.1.2.3.3
0033a000-0033b000 rw-p 00013000 08:04 2932934    /lib/libz.so.1.2.3.3
0033b000-0034f000 r-xp 00000000 08:04 671839     /usr/lib/jvm/java-6-openjdk/jre/lib/i386/libnet.so
0034f000-00350000 r--p 00013000 08:04 671839     /usr/lib/jvm/java-6-openjdk/jre/lib/i386/libnet.so
00350000-00351000 rw-p 00014000 08:04 671839     /usr/lib/jvm/java-6-openjdk/jre/lib/i386/libnet.so
00382000-003a6000 r-xp 00000000 08:04 2960079    /lib/tls/i686/cmov/libm-2.11.1.so
003a6000-003a7000 r--p 00023000 08:04 2960079    /lib/tls/i686/cmov/libm-2.11.1.so
003a7000-003a8000 rw-p 00024000 08:04 2960079    /lib/tls/i686/cmov/libm-2.11.1.so
003c9000-003e1000 r-xp 00000000 08:04 125478     /usr/lib/libxcb.so.1.1.0
003e1000-003e2000 r--p 00017000 08:04 125478     /usr/lib/libxcb.so.1.1.0
003e2000-003e3000 rw-p 00018000 08:04 125478     /usr/lib/libxcb.so.1.1.0
003e3000-00454000 r-xp 00000000 08:04 124097     /usr/lib/libfreetype.so.6.3.22
00454000-00458000 r--p 00070000 08:04 124097     /usr/lib/libfreetype.so.6.3.22
00458000-00459000 rw-p 00074000 08:04 124097     /usr/lib/libfreetype.so.6.3.22
0048f000-00491000 r-xp 00000000 08:04 2960072    /lib/tls/i686/cmov/libdl-2.11.1.so
00491000-00492000 r--p 00001000 08:04 2960072    /lib/tls/i686/cmov/libdl-2.11.1.so
00492000-00493000 rw-p 00002000 08:04 2960072    /lib/tls/i686/cmov/libdl-2.11.1.so
0050e000-00521000 r-xp 00000000 08:04 2957830    /lib/tls/i686/cmov/libnsl-2.11.1.so
00521000-00522000 r--p 00012000 08:04 2957830    /lib/tls/i686/cmov/libnsl-2.11.1.so
00522000-00523000 rw-p 00013000 08:04 2957830    /lib/tls/i686/cmov/libnsl-2.11.1.so
00523000-00525000 rw-p 00000000 00:00 0 
0054a000-00550000 r-xp 00000000 08:04 2960089    /lib/tls/i686/cmov/libnss_compat-2.11.1.so
00550000-00551000 r--p 00006000 08:04 2960089    /lib/tls/i686/cmov/libnss_compat-2.11.1.so
00551000-00552000 rw-p 00007000 08:04 2960089    /lib/tls/i686/cmov/libnss_compat-2.11.1.so
00555000-00561000 r-xp 00000000 08:04 124492     /usr/lib/libXi.so.6.1.0
00561000-00562000 r--p 0000c000 08:04 124492     /usr/lib/libXi.so.6.1.0
00562000-00563000 rw-p 0000d000 08:04 124492     /usr/lib/libXi.so.6.1.0
005b4000-005be000 r-xp 00000000 08:04 2960074    /lib/tls/i686/cmov/libnss_files-2.11.1.so
005be000-005bf000 r--p 00009000 08:04 2960074    /lib/tls/i686/cmov/libnss_files-2.11.1.so
005bf000-005c0000 rw-p 0000a000 08:04 2960074    /lib/tls/i686/cmov/libnss_files-2.11.1.so
005d5000-005d6000 r-xp 00000000 00:00 0          [vdso]
005d6000-00729000 r-xp 00000000 08:04 2960077    /lib/tls/i686/cmov/libc-2.11.1.so
00729000-0072b000 r--p 00153000 08:04 2960077    /lib/tls/i686/cmov/libc-2.11.1.so
0072b000-0072c000 rw-p 00155000 08:04 2960077    /lib/tls/i686/cmov/libc-2.11.1.so
0072c000-0072f000 rw-p 00000000 00:00 0 
007b7000-007bf000 r-xp 00000000 08:04 2960090    /lib/tls/i686/cmov/libnss_nis-2.11.1.so
007bf000-007c0000 r--p 00007000 08:04 2960090    /lib/tls/i686/cmov/libnss_nis-2.11.1.so
007c0000-007c1000 rw-p 00008000 08:04 2960090    /lib/tls/i686/cmov/libnss_nis-2.11.1.so
007c9000-007d0000 r-xp 00000000 08:04 671862     /usr/lib/jvm/java-6-openjdk/jre/lib/i386/libzip.so
007d0000-007d1000 r--p 00006000 08:04 671862     /usr/lib/jvm/java-6-openjdk/jre/lib/i386/libzip.so
007d1000-007d2000 rw-p 00007000 08:04 671862     /usr/lib/jvm/java-6-openjdk/jre/lib/i386/libzip.so
00864000-00867000 r-xp 00000000 08:04 671775     /usr/lib/jvm/java-6-openjdk/jre/lib/i386/jli/libjli.so
00867000-00868000 r--p 00003000 08:04 671775     /usr/lib/jvm/java-6-openjdk/jre/lib/i386/jli/libjli.so
00868000-00869000 rw-p 00004000 08:04 671775     /usr/lib/jvm/java-6-openjdk/jre/lib/i386/jli/libjli.so
00869000-00982000 r-xp 00000000 08:04 124467     /usr/lib/libX11.so.6.3.0
00982000-00983000 r--p 00118000 08:04 124467     /usr/lib/libX11.so.6.3.0
00983000-00985000 rw-p 00119000 08:04 124467     /usr/lib/libX11.so.6.3.0
00985000-00986000 rw-p 00000000 00:00 0 
00a54000-00a6f000 r-xp 00000000 08:04 2933716    /lib/ld-2.11.1.so
00a6f000-00a70000 r--p 0001a000 08:04 2933716    /lib/ld-2.11.1.so
00a70000-00a71000 rw-p 0001b000 08:04 2933716    /lib/ld-2.11.1.so
00a71000-01136000 r-xp 00000000 08:04 671864     /usr/lib/jvm/java-6-openjdk/jre/lib/i386/server/libjvm.so
01136000-01137000 ---p 006c5000 08:04 671864     /usr/lib/jvm/java-6-openjdk/jre/lib/i386/server/libjvm.so
01137000-0117c000 r--p 006c5000 08:04 671864     /usr/lib/jvm/java-6-openjdk/jre/lib/i386/server/libjvm.so
0117c000-0118b000 rw-p 0070a000 08:04 671864     /usr/lib/jvm/java-6-openjdk/jre/lib/i386/server/libjvm.so
0118b000-015aa000 rw-p 00000000 00:00 0 
08048000-08051000 r-xp 00000000 08:04 671917     /usr/lib/jvm/java-6-openjdk/jre/bin/java
08051000-08052000 r--p 00008000 08:04 671917     /usr/lib/jvm/java-6-openjdk/jre/bin/java
08052000-08053000 rw-p 00009000 08:04 671917     /usr/lib/jvm/java-6-openjdk/jre/bin/java
09ad5000-0dd93000 rw-p 00000000 00:00 0          [heap]
7b600000-7b6f6000 rw-p 00000000 00:00 0 
7b6f6000-7b700000 ---p 00000000 00:00 0 
7b700000-7b7df000 rw-p 00000000 00:00 0 
7b7df000-7b800000 ---p 00000000 00:00 0 
7b800000-7b8fd000 rw-p 00000000 00:00 0 
7b8fd000-7b900000 ---p 00000000 00:00 0 
7b900000-7b9fa000 rw-p 00000000 00:00 0 
7b9fa000-7ba00000 ---p 00000000 00:00 0 
7ba00000-7badf000 rw-p 00000000 00:00 0 
7badf000-7bb00000 ---p 00000000 00:00 0 
7bb00000-7bbe5000 rw-p 00000000 00:00 0 
7bbe5000-7bc00000 ---p 00000000 00:00 0 
7bc00000-7bcfc000 rw-p 00000000 00:00 0 
7bcfc000-7bd00000 ---p 00000000 00:00 0 
7bd00000-7bd21000 rw-p 00000000 00:00 0 
7bd21000-7be00000 ---p 00000000 00:00 0 
7be00000-7beff000 rw-p 00000000 00:00 0 
7beff000-7bf00000 ---p 00000000 00:00 0 
7c000000-7c0fa000 rw-p 00000000 00:00 0 
7c0fa000-7c100000 ---p 00000000 00:00 0 
7c100000-7c1f1000 rw-p 00000000 00:00 0 
7c1f1000-7c200000 ---p 00000000 00:00 0 
7c200000-7c2f4000 rw-p 00000000 00:00 0 
7c2f4000-7c300000 ---p 00000000 00:00 0 
7c300000-7c3fc000 rw-p 00000000 00:00 0 
7c3fc000-7c400000 ---p 00000000 00:00 0 
7c400000-7c4f2000 rw-p 00000000 00:00 0 
7c4f2000-7c500000 ---p 00000000 00:00 0 
7c600000-7c700000 rw-p 00000000 00:00 0 
7c800000-7c8ea000 rw-p 00000000 00:00 0 
7c8ea000-7c900000 ---p 00000000 00:00 0 
7c900000-7ca00000 rw-p 00000000 00:00 0 
7ca00000-7cafb000 rw-p 00000000 00:00 0 
7cafb000-7cb00000 ---p 00000000 00:00 0 
7cb58000-7cb5b000 ---p 00000000 00:00 0 
7cb5b000-7cba9000 rw-p 00000000 00:00 0 
7cbc0000-7cd00000 rw-s 00000000 00:04 107708452  /SYSV00000000 (deleted)
7cd00000-7cdfd000 rw-p 00000000 00:00 0 
7cdfd000-7ce00000 ---p 00000000 00:00 0 
7ce5e000-7ce61000 ---p 00000000 00:00 0 
7ce61000-7ceaf000 rw-p 00000000 00:00 0 
7ceaf000-7ceb2000 ---p 00000000 00:00 0 
7ceb2000-7cf00000 rw-p 00000000 00:00 0 
7cf00000-7cfc5000 rw-p 00000000 00:00 0 
7cfc5000-7d000000 ---p 00000000 00:00 0 
7d030000-7d033000 ---p 00000000 00:00 0 
7d033000-7d081000 rw-p 00000000 00:00 0 
7d081000-7d084000 ---p 00000000 00:00 0 
7d084000-7d158000 rw-p 00000000 00:00 0 
7d16b000-7d16e000 ---p 00000000 00:00 0 
7d16e000-7d1bc000 rw-p 00000000 00:00 0 
7d1bc000-7d1bf000 ---p 00000000 00:00 0 
7d1bf000-7d20d000 rw-p 00000000 00:00 0 
7d20d000-7d210000 ---p 00000000 00:00 0 
7d210000-7d25e000 rw-p 00000000 00:00 0 
7d25e000-7d261000 ---p 00000000 00:00 0 
7d261000-7d2af000 rw-p 00000000 00:00 0 
7d2af000-7d2b2000 ---p 00000000 00:00 0 
7d2b2000-7d300000 rw-p 00000000 00:00 0 
7d300000-7d3fb000 rw-p 00000000 00:00 0 
7d3fb000-7d400000 ---p 00000000 00:00 0 
7d400000-7d4f2000 rw-p 00000000 00:00 0 
7d4f2000-7d500000 ---p 00000000 00:00 0 
7d500000-7d5fc000 rw-p 00000000 00:00 0 
7d5fc000-7d600000 ---p 00000000 00:00 0 
7d615000-7d618000 r--s 00077000 08:04 663829     /usr/lib/jvm/java-6-openjdk/jre/lib/ext/localedata.jar
7d61d000-7d61f000 r--s 00011000 08:06 5406967    /home/antanas/.m2/repository/com/miglayout/miglayout/3.7/miglayout-3.7-swing.jar
7d61f000-7d622000 r--s 0002c000 08:06 5382586    /home/antanas/.m2/repository/org/geotools/gt-cql/8.0-M4/gt-cql-8.0-M4.jar
7d622000-7d626000 r--s 0002a000 08:06 5358571    /home/antanas/.m2/repository/org/jaitools/jt-utils/1.2.0/jt-utils-1.2.0.jar
7d626000-7d627000 r--s 00004000 08:06 5308729    /home/antanas/.m2/repository/org/jaitools/jt-zonalstats/1.2.0/jt-zonalstats-1.2.0.jar
7d627000-7d62b000 r--s 0003c000 08:06 5284048    /home/antanas/.m2/repository/javax/media/jai_codec/1.1.3/jai_codec-1.1.3.jar
7d62b000-7d62c000 r--s 00009000 08:06 5251300    /home/antanas/.m2/repository/it/geosolutions/imageio-ext/imageio-ext-utilities/1.1.2/imageio-ext-utilities-1.1.2.jar
7d62c000-7d635000 r--s 00045000 08:06 5202169    /home/antanas/.m2/repository/it/geosolutions/imageio-ext/imageio-ext-tiff/1.1.2/imageio-ext-tiff-1.1.2.jar
7d635000-7d646000 r--s 00106000 08:06 5161692    /home/antanas/.m2/repository/javax/media/jai_imageio/1.1/jai_imageio-1.1.jar
7d646000-7d64c000 r--s 00063000 08:06 5145001    /home/antanas/.m2/repository/org/geotools/gt-coverage/8.0-M4/gt-coverage-8.0-M4.jar
7d64c000-7d64f000 ---p 00000000 00:00 0 
7d64f000-7d69d000 rw-p 00000000 00:00 0 
7d69d000-7d6a3000 r--s 000fc000 08:04 663887     /usr/lib/jvm/java-6-openjdk/jre/lib/resources.jar
7d6a3000-7d6a4000 r--s 00000000 08:04 1105985    /var/cache/fontconfig/c05880de57d1f5e948fdfacc138775d9-le32d4.cache-3
7d6a4000-7d6aa000 r--s 00000000 08:04 1105982    /var/cache/fontconfig/945677eb7aeaf62f1d50efc3fb3ec7d8-le32d4.cache-3
7d6aa000-7d6ac000 r--s 00000000 08:04 1105983    /var/cache/fontconfig/99e8ed0e538f840c565b6ed5dad60d56-le32d4.cache-3
7d6ac000-7d6af000 r--s 00000000 08:04 1105992    /var/cache/fontconfig/e383d7ea5fbe662a33d9b44caf393297-le32d4.cache-3
7d6af000-7d6b5000 r--s 00000000 08:04 1107796    /var/cache/fontconfig/401a5dd6b567794a1d18dd9342dfa604-le32d4.cache-3
7d6b5000-7d6b6000 r--s 00000000 08:04 1108205    /var/cache/fontconfig/e3fa16a14183b06aa45b3e009278fd14-le32d4.cache-3
7d6b6000-7d6b7000 r--s 00000000 08:04 1105993    /var/cache/fontconfig/e7071f4a29fa870f4323321c154eba04-le32d4.cache-3
7d6b7000-7d6ba000 r--s 00000000 08:04 1105979    /var/cache/fontconfig/6eb3985aa4124903f6ff08ba781cd364-le32d4.cache-3
7d6ba000-7d6bb000 r--s 00000000 08:04 1105975    /var/cache/fontconfig/4c73fe0c47614734b17d736dbde7580a-le32d4.cache-3
7d6bb000-7d6bc000 r--s 00000000 08:04 1105969    /var/cache/fontconfig/0d8c3b2ac0904cb8a57a757ad11a4a08-le32d4.cache-3
7d6bc000-7d6bd000 r--s 00000000 08:04 1105977    /var/cache/fontconfig/6a53c69dea097a2d716e069445527da8-le32d4.cache-3
7d6bd000-7d6c1000 r--s 00000000 08:04 1105984    /var/cache/fontconfig/a755afe4a08bf5b97852ceb7400b47bc-le32d4.cache-3
7d6c1000-7d6c2000 r--s 00000000 08:04 1108204    /var/cache/fontconfig/79517df041c92e3f2b4a9700e7dbe3c7-le32d4.cache-3
7d6c2000-7d6c3000 r--s 00000000 08:04 1108203    /var/cache/fontconfig/4abdb2dd99886b2b2d3168a6b22d0473-le32d4.cache-3
7d6c3000-7d6c4000 r--s 00000000 08:04 1108202    /var/cache/fontconfig/b9af901c4f3947128be824d599af5f25-le32d4.cache-3
7d6c4000-7d6c5000 r--s 00000000 08:04 1108201    /var/cache/fontconfig/a18183678af55fd6535fa2d00e080189-le32d4.cache-3
7d6c5000-7d6c7000 r--s 00000000 08:04 1108200    /var/cache/fontconfig/90e84e89a4382a8db77728561d41356d-le32d4.cache-3
7d6c7000-7d6c8000 r--s 00000000 08:04 1108199    /var/cache/fontconfig/b73ae53b2eee308c3d7feb99ac2d34cd-le32d4.cache-3
7d6c8000-7d6c9000 r--s 00000000 08:04 1108198    /var/cache/fontconfig/407fd690308a0b04640307de6deab6da-le32d4.cache-3
7d6c9000-7d6cb000 r--s 00000000 08:04 1108197    /var/cache/fontconfig/8039e78ad04dad2b193eec8c5f90bc4d-le32d4.cache-3
7d6cb000-7d6cc000 r--s 00000000 08:04 1108196    /var/cache/fontconfig/27f6fa40476fb33ad65cb210c133a216-le32d4.cache-3
7d6cc000-7d6cd000 r--s 00000000 08:04 1108195    /var/cache/fontconfig/98d684ad3abba16030bd60992dc9c5d7-le32d4.cache-3
7d6cd000-7d6cf000 r--s 00000000 08:04 1108194    /var/cache/fontconfig/9123b38b1c36356a690c2f0bc4cbf728-le32d4.cache-3
7d6cf000-7d6d3000 r--s 00000000 08:04 1107795    /var/cache/fontconfig/515ca1ebc4b18308bea979be5704f9db-le32d4.cache-3
7d6d3000-7d6da000 r--s 00000000 08:04 1106851    /var/cache/fontconfig/6d41288fd70b0be22e8c3a91e032eec0-le32d4.cache-3
7d6da000-7d6e5000 r--s 00000000 08:04 1107200    /var/cache/fontconfig/0f34bcd4b6ee430af32735b75db7f02b-le32d4.cache-3
7d6e5000-7d6e8000 r--s 00000000 08:04 1105989    /var/cache/fontconfig/d60319d88cac85ba9e1a07bd06cfbb8c-le32d4.cache-3
7d6e8000-7d6ea000 r--s 00000000 08:04 1108191    /var/cache/fontconfig/672aee4294bfd83eb6121aef55f9ad41-le32d4.cache-3
7d6ea000-7d6eb000 r--s 00000000 08:04 1107392    /var/cache/fontconfig/4794a0821666d79190d59a36cb4f44b5-le32d4.cache-3
7d6eb000-7d6f3000 r--s 00000000 08:04 1105988    /var/cache/fontconfig/d52a8644073d54c13679302ca1180695-le32d4.cache-3
7d6f3000-7d705000 r--s 00000000 08:04 1108210    /var/cache/fontconfig/e13b20fdb08344e0e664864cc2ede53d-le32d4.cache-3
7d705000-7d708000 r--s 00000000 08:04 1108053    /var/cache/fontconfig/7ef2298fde41cc6eeb7af42e48b7d293-le32d4.cache-3
7d708000-7d70e000 r--s 00000000 08:04 1108208    /var/cache/fontconfig/b83386915dae36184c7e3985fd26e4b1-le32d4.cache-3
7d70e000-7d71c000 r--s 00000000 08:04 1108054    /var/cache/fontconfig/865f88548240fee46819705c6468c165-le32d4.cache-3
7d71c000-7d71d000 r--s 00000000 08:04 1105985    /var/cache/fontconfig/c05880de57d1f5e948fdfacc138775d9-le32d4.cache-3
7d71d000-7d723000 r--s 00000000 08:04 1105982    /var/cache/fontconfig/945677eb7aeaf62f1d50efc3fb3ec7d8-le32d4.cache-3
7d723000-7d725000 r--s 00000000 08:04 1105983    /var/cache/fontconfig/99e8ed0e538f840c565b6ed5dad60d56-le32d4.cache-3
7d725000-7d728000 r--s 00000000 08:04 1105992    /var/cache/fontconfig/e383d7ea5fbe662a33d9b44caf393297-le32d4.cache-3
7d728000-7d72e000 r--s 00000000 08:04 1107796    /var/cache/fontconfig/401a5dd6b567794a1d18dd9342dfa604-le32d4.cache-3
7d72e000-7d72f000 r--s 00000000 08:04 1108205    /var/cache/fontconfig/e3fa16a14183b06aa45b3e009278fd14-le32d4.cache-3
7d72f000-7d730000 r--s 00000000 08:04 1105993    /var/cache/fontconfig/e7071f4a29fa870f4323321c154eba04-le32d4.cache-3
7d730000-7d733000 r--s 00000000 08:04 1105979    /var/cache/fontconfig/6eb3985aa4124903f6ff08ba781cd364-le32d4.cache-3
7d733000-7d734000 r--s 00000000 08:04 1105975    /var/cache/fontconfig/4c73fe0c47614734b17d736dbde7580a-le32d4.cache-3
7d734000-7d735000 r--s 00000000 08:04 1105969    /var/cache/fontconfig/0d8c3b2ac0904cb8a57a757ad11a4a08-le32d4.cache-3
7d735000-7d736000 r--s 00000000 08:04 1105977    /var/cache/fontconfig/6a53c69dea097a2d716e069445527da8-le32d4.cache-3
7d736000-7d73a000 r--s 00000000 08:04 1105984    /var/cache/fontconfig/a755afe4a08bf5b97852ceb7400b47bc-le32d4.cache-3
7d73a000-7d73b000 r--s 00000000 08:04 1108204    /var/cache/fontconfig/79517df041c92e3f2b4a9700e7dbe3c7-le32d4.cache-3
7d73b000-7d73c000 r--s 00000000 08:04 1108203    /var/cache/fontconfig/4abdb2dd99886b2b2d3168a6b22d0473-le32d4.cache-3
7d73c000-7d73d000 r--s 00000000 08:04 1108202    /var/cache/fontconfig/b9af901c4f3947128be824d599af5f25-le32d4.cache-3
7d73d000-7d73e000 r--s 00000000 08:04 1108201    /var/cache/fontconfig/a18183678af55fd6535fa2d00e080189-le32d4.cache-3
7d73e000-7d740000 r--s 00000000 08:04 1108200    /var/cache/fontconfig/90e84e89a4382a8db77728561d41356d-le32d4.cache-3
7d740000-7d741000 r--s 00000000 08:04 1108199    /var/cache/fontconfig/b73ae53b2eee308c3d7feb99ac2d34cd-le32d4.cache-3
7d741000-7d742000 r--s 00000000 08:04 1108198    /var/cache/fontconfig/407fd690308a0b04640307de6deab6da-le32d4.cache-3
7d742000-7d744000 r--s 00000000 08:04 1108197    /var/cache/fontconfig/8039e78ad04dad2b193eec8c5f90bc4d-le32d4.cache-3
7d744000-7d745000 r--s 00000000 08:04 1108196    /var/cache/fontconfig/27f6fa40476fb33ad65cb210c133a216-le32d4.cache-3
7d745000-7d746000 r--s 00000000 08:04 1108195    /var/cache/fontconfig/98d684ad3abba16030bd60992dc9c5d7-le32d4.cache-3
7d746000-7d748000 r--s 00000000 08:04 1108194    /var/cache/fontconfig/9123b38b1c36356a690c2f0bc4cbf728-le32d4.cache-3
7d748000-7d74c000 r--s 00000000 08:04 1107795    /var/cache/fontconfig/515ca1ebc4b18308bea979be5704f9db-le32d4.cache-3
7d74c000-7d753000 r--s 00000000 08:04 1106851    /var/cache/fontconfig/6d41288fd70b0be22e8c3a91e032eec0-le32d4.cache-3
7d753000-7d75e000 r--s 00000000 08:04 1107200    /var/cache/fontconfig/0f34bcd4b6ee430af32735b75db7f02b-le32d4.cache-3
7d75e000-7d761000 r--s 00000000 08:04 1105989    /var/cache/fontconfig/d60319d88cac85ba9e1a07bd06cfbb8c-le32d4.cache-3
7d761000-7d763000 r--s 00000000 08:04 1108191    /var/cache/fontconfig/672aee4294bfd83eb6121aef55f9ad41-le32d4.cache-3
7d763000-7d764000 r--s 00000000 08:04 1107392    /var/cache/fontconfig/4794a0821666d79190d59a36cb4f44b5-le32d4.cache-3
7d764000-7d76c000 r--s 00000000 08:04 1105988    /var/cache/fontconfig/d52a8644073d54c13679302ca1180695-le32d4.cache-3
7d76c000-7d77e000 r--s 00000000 08:04 1108210    /var/cache/fontconfig/e13b20fdb08344e0e664864cc2ede53d-le32d4.cache-3
7d77e000-7d781000 r--s 00000000 08:04 1108053    /var/cache/fontconfig/7ef2298fde41cc6eeb7af42e48b7d293-le32d4.cache-3
7d781000-7d787000 r--s 00000000 08:04 1108208    /var/cache/fontconfig/b83386915dae36184c7e3985fd26e4b1-le32d4.cache-3
7d787000-7d795000 r--s 00000000 08:04 1108054    /var/cache/fontconfig/865f88548240fee46819705c6468c165-le32d4.cache-3
7d795000-7d798000 ---p 00000000 00:00 0 
7d798000-7d7e6000 rw-p 00000000 00:00 0 
7d7e6000-7d7ec000 r--s 00061000 08:06 5128618    /home/antanas/.m2/repository/org/geotools/gt-render/8.0-M4/gt-render-8.0-M4.jar
7d7ec000-7d800000 r--s 001bd000 08:06 2048283    /home/antanas/.m2/repository/javax/media/jai_core/1.1.3/jai_core-1.1.3.jar
7d800000-7d8e3000 rw-p 00000000 00:00 0 
7d8e3000-7d900000 ---p 00000000 00:00 0 
7d900000-7d903000 r--s 0007d000 08:04 663881     /usr/lib/jvm/java-6-openjdk/jre/lib/jsse.jar
7d903000-7d90b000 r--s 0004c000 08:06 8863840    /home/antanas/.m2/repository/org/geotools/gt-swing/8.0-M4/gt-swing-8.0-M4.jar
7d90b000-7d913000 r--s 00096000 08:06 5292646    /home/antanas/.m2/repository/hsqldb/hsqldb/1.8.0.7/hsqldb-1.8.0.7.jar
7d913000-7d916000 r--s 00023000 08:06 7636611    /home/antanas/.m2/repository/jdom/jdom/1.0/jdom-1.0.jar
7d916000-7d919000 r--s 00014000 08:06 8020893    /home/antanas/.m2/repository/net/java/dev/jsr-275/jsr-275/1.0-beta-2/jsr-275-1.0-beta-2.jar
7d919000-7d927000 r--s 00047000 08:06 5218629    /home/antanas/.m2/repository/org/geotools/gt-opengis/8.0-M4/gt-opengis-8.0-M4.jar
7d927000-7d930000 r--s 00073000 08:06 8020895    /home/antanas/.m2/repository/org/geotools/gt-metadata/8.0-M4/gt-metadata-8.0-M4.jar
7d930000-7d933000 r--s 00015000 08:06 2040429    /home/antanas/.m2/repository/commons-pool/commons-pool/1.5.4/commons-pool-1.5.4.jar
7d933000-7d935000 r--s 0003b000 08:06 8855667    /home/antanas/.m2/repository/java3d/vecmath/1.3.2/vecmath-1.3.2.jar
7d935000-7d944000 r--s 00101000 08:06 32899      /home/antanas/.m2/repository/org/geotools/gt-referencing/8.0-M4/gt-referencing-8.0-M4.jar
7d944000-7d956000 r--s 000c9000 08:06 5202170    /home/antanas/.m2/repository/xerces/xercesImpl/2.4.0/xercesImpl-2.4.0.jar
7d956000-7d967000 r--s 000ac000 08:06 8872182    /home/antanas/.m2/repository/com/vividsolutions/jts/1.12/jts-1.12.jar
7d967000-7d96c000 r--s 0001f000 08:06 8127393    /home/antanas/.m2/repository/org/geotools/gt-api/8.0-M4/gt-api-8.0-M4.jar
7d96c000-7d984000 r--s 00162000 08:06 5709884    /home/antanas/.m2/repository/org/geotools/gt-main/8.0-M4/gt-main-8.0-M4.jar
7d984000-7d986000 r--s 00010000 08:06 8072163    /home/antanas/.m2/repository/org/geotools/gt-data/8.0-M4/gt-data-8.0-M4.jar
7d986000-7d98a000 r--s 00034000 08:06 8699963    /home/antanas/.m2/repository/org/geotools/gt-shapefile/8.0-M4/gt-shapefile-8.0-M4.jar
7d98a000-7d993000 r--s 00065000 08:04 221558     /usr/share/java/gnome-java-bridge.jar
7d993000-7d994000 ---p 00000000 00:00 0 
7d994000-7da14000 rw-p 00000000 00:00 0 
7da14000-7da17000 ---p 00000000 00:00 0 
7da17000-7da65000 rw-p 00000000 00:00 0 
7da65000-7da68000 ---p 00000000 00:00 0 
7da68000-7dae6000 rw-p 00000000 00:00 0 
7dae6000-7dae9000 ---p 00000000 00:00 0 
7dae9000-7db67000 rw-p 00000000 00:00 0 
7db67000-7db6a000 ---p 00000000 00:00 0 
7db6a000-7dbb8000 rw-p 00000000 00:00 0 
7dbb8000-7dbf7000 r--p 00000000 08:04 164399     /usr/lib/locale/en_US.utf8/LC_CTYPE
7dbf7000-7dbfa000 ---p 00000000 00:00 0 
7dbfa000-7dc48000 rw-p 00000000 00:00 0 
7dc48000-7dc4b000 ---p 00000000 00:00 0 
7dc4b000-7dc99000 rw-p 00000000 00:00 0 
7dc99000-7dc9a000 ---p 00000000 00:00 0 
7dc9a000-7dd1a000 rw-p 00000000 00:00 0 
7dd1a000-7dd1c000 r--s 0001d000 08:04 663886     /usr/lib/jvm/java-6-openjdk/jre/lib/plugin.jar
7dd1c000-7dd21000 r--s 00045000 08:04 663885     /usr/lib/jvm/java-6-openjdk/jre/lib/netx.jar
7dd21000-7dd54000 rw-p 00000000 00:00 0 
7dd54000-7dee4000 r--s 038c5000 08:04 663893     /usr/lib/jvm/java-6-openjdk/jre/lib/rt.jar
7dee4000-7dee5000 ---p 00000000 00:00 0 
7dee5000-7df65000 rw-p 00000000 00:00 0 
7df65000-7df66000 ---p 00000000 00:00 0 
7df66000-7dff2000 rw-p 00000000 00:00 0 
7dff2000-7e026000 rw-p 00000000 00:00 0 
7e026000-7e036000 rw-p 00000000 00:00 0 
7e036000-7e11d000 rw-p 00000000 00:00 0 
7e11d000-7e129000 rw-p 00000000 00:00 0 
7e129000-7e15d000 rw-p 00000000 00:00 0 
7e15d000-7e16d000 rw-p 00000000 00:00 0 
7e16d000-7e253000 rw-p 00000000 00:00 0 
7e253000-7e293000 rw-p 00000000 00:00 0 
7e293000-7e29d000 ---p 00000000 00:00 0 
7e29d000-7e2cf000 rw-p 00000000 00:00 0 
7e2cf000-7f950000 rw-p 00000000 00:00 0 
7f950000-862d0000 rw-p 00000000 00:00 0 
862d0000-881a0000 rw-p 00000000 00:00 0 
881a0000-a5030000 rw-p 00000000 00:00 0 
a5030000-acec0000 rw-p 00000000 00:00 0 
acec0000-ae180000 ---p 00000000 00:00 0 
ae180000-b46d0000 rw-p 00000000 00:00 0 
b46d0000-b46d1000 r--p 00000000 00:00 0 
b46d1000-b46dd000 rw-p 00000000 00:00 0 
b46dd000-b4791000 rw-p 00000000 00:00 0 
b4791000-b4a81000 rwxp 00000000 00:00 0 
b4a81000-b7791000 rw-p 00000000 00:00 0 
b7791000-b7794000 ---p 00000000 00:00 0 
b7794000-b77e5000 rw-p 00000000 00:00 0 
b77e5000-b77e6000 r--s 001e7000 08:06 5284055    /home/antanas/.m2/repository/org/geotools/gt-epsg-hsql/8.0-M4/gt-epsg-hsql-8.0-M4.jar
b77e6000-b77e9000 r--s 0000f000 08:04 663865     /usr/lib/jvm/java-6-openjdk/jre/lib/ext/pulse-java.jar
b77e9000-b77f0000 r--s 00000000 08:04 4563289    /usr/lib/gconv/gconv-modules.cache
b77f0000-b77f8000 rw-s 00000000 08:04 2629741    /tmp/hsperfdata_antanas/30242
b77f8000-b77f9000 rw-p 00000000 00:00 0 
b77f9000-b77fa000 r--p 00000000 00:00 0 
b77fa000-b77fc000 rw-p 00000000 00:00 0 
bfdb9000-bfdce000 rw-p 00000000 00:00 0          [stack]

VM Arguments:
jvm_args: -Dfile.encoding=UTF-8 
java_command: com.mycompany.tutorial.SelectionLab
Launcher Type: SUN_STANDARD

Environment Variables:
PATH=/usr/local/sbin:/usr/local/bin:/usr/sbin:/usr/bin:/sbin:/bin:/usr/games:/opt/real/RealPlayer
USERNAME=antanas
LD_LIBRARY_PATH=/usr/lib/jvm/java-6-openjdk/jre/lib/i386/server:/usr/lib/jvm/java-6-openjdk/jre/lib/i386:/usr/lib/jvm/java-6-openjdk/jre/../lib/i386:/usr/local/java/jdk1.6.0_20/jre/lib/i386/client:/usr/local/java/jdk1.6.0_20/jre/lib/i386:
SHELL=/bin/bash
DISPLAY=:0.0

Signal Handlers:
SIGSEGV: [libjvm.so+0x64a040], sa_mask[0]=0x7ffbfeff, sa_flags=0x10000004
SIGBUS: [libjvm.so+0x64a040], sa_mask[0]=0x7ffbfeff, sa_flags=0x10000004
SIGFPE: [libjvm.so+0x51c0d0], sa_mask[0]=0x7ffbfeff, sa_flags=0x10000004
SIGPIPE: [libjvm.so+0x51c0d0], sa_mask[0]=0x7ffbfeff, sa_flags=0x10000004
SIGXFSZ: [libjvm.so+0x51c0d0], sa_mask[0]=0x7ffbfeff, sa_flags=0x10000004
SIGILL: [libjvm.so+0x51c0d0], sa_mask[0]=0x7ffbfeff, sa_flags=0x10000004
SIGUSR1: SIG_DFL, sa_mask[0]=0x00000000, sa_flags=0x00000000
SIGUSR2: [libjvm.so+0x51b780], sa_mask[0]=0x00000004, sa_flags=0x10000004
SIGHUP: [libjvm.so+0x51e2f0], sa_mask[0]=0x7ffbfeff, sa_flags=0x10000004
SIGINT: [libjvm.so+0x51e2f0], sa_mask[0]=0x7ffbfeff, sa_flags=0x10000004
SIGTERM: [libjvm.so+0x51e2f0], sa_mask[0]=0x7ffbfeff, sa_flags=0x10000004
SIGQUIT: [libjvm.so+0x51e2f0], sa_mask[0]=0x7ffbfeff, sa_flags=0x10000004


---------------  S Y S T E M  ---------------

OS:Ubuntu 10.04 (lucid)
uname:Linux 2.6.32-40-generic #87-Ubuntu SMP Mon Mar 5 20:26:31 UTC 2012 i686
libc:glibc 2.11.1 NPTL 2.11.1 
rlimit: STACK 8192k, CORE 0k, NPROC infinity, NOFILE 1024, AS infinity
load average:1.39 1.35 1.53

/proc/meminfo:
MemTotal:        3025676 kB
MemFree:          740804 kB
Buffers:           72760 kB
Cached:           804172 kB
SwapCached:         5324 kB
Active:          1449348 kB
Inactive:         726392 kB
Active(anon):    1158408 kB
Inactive(anon):   461420 kB
Active(file):     290940 kB
Inactive(file):   264972 kB
Unevictable:          76 kB
Mlocked:              60 kB
HighTotal:       2164420 kB
HighFree:         146424 kB
LowTotal:         861256 kB
LowFree:          594380 kB
SwapTotal:       3905528 kB
SwapFree:        3812084 kB
Dirty:               472 kB
Writeback:             0 kB
AnonPages:       1294892 kB
Mapped:           190552 kB
Shmem:            321008 kB
Slab:              61308 kB
SReclaimable:      38984 kB
SUnreclaim:        22324 kB
KernelStack:        3736 kB
PageTables:        13156 kB
NFS_Unstable:          0 kB
Bounce:                0 kB
WritebackTmp:          0 kB
CommitLimit:     5418364 kB
Committed_AS:    4086624 kB
VmallocTotal:     122880 kB
VmallocUsed:       35796 kB
VmallocChunk:      61552 kB
HardwareCorrupted:     0 kB
HugePages_Total:       0
HugePages_Free:        0
HugePages_Rsvd:        0
HugePages_Surp:        0
Hugepagesize:       4096 kB
DirectMap4k:       16376 kB
DirectMap4M:      892928 kB


CPU:total 2 (2 cores per cpu, 1 threads per core) family 6 model 23 stepping 6, cmov, cx8, fxsr, mmx, sse, sse2, sse3, ssse3, sse4.1

Memory: 4k page, physical 3025676k(740804k free), swap 3905528k(3812084k free)

vm_info: OpenJDK Server VM (19.0-b09) for linux-x86 JRE (1.6.0_20-b20), built on Feb 17 2012 07:22:18 by "buildd" with gcc 4.4.3

time: Sun May 20 19:25:30 2012
elapsed time: 56 seconds

