INDEX VERSION 1.126+E:\Projects\git\MIF2013\gis\.metadata\.plugins\org.eclipse.jdt.core
30765161.index
3974580528.index
1299022128.index
3065916431.index
3251661479.index
2833052117.index
338406035.index
1697886153.index
4079041853.index
3322731832.index
3478292805.index
2605003532.index
1607946635.index
1115467115.index
4108727661.index
3487956068.index
305854171.index
4091930950.index
1427398488.index
162153029.index
1164573416.index
757026932.index
2026772130.index
1930084699.index
665148264.index
163172794.index
996281306.index
4041092966.index
2662810953.index
1055498161.index
3133528496.index
3265288971.index
3044280357.index
1498219845.index
1995173708.index
3002075980.index
2665312357.index
867617798.index
2219450867.index
4155206848.index
804485034.index
1459474138.index
